{"frames": [

{
	"filename": "already_acount.png",
	"frame": {"x":0,"y":0,"w":289,"h":28},
	"rotated": false,
	"trimmed": false,
	"spriteSourceSize": {"x":0,"y":0,"w":289,"h":28},
	"sourceSize": {"w":289,"h":28}
},
{
	"filename": "official_rules.png",
	"frame": {"x":289,"y":0,"w":300,"h":11},
	"rotated": false,
	"trimmed": false,
	"spriteSourceSize": {"x":0,"y":0,"w":300,"h":11},
	"sourceSize": {"w":300,"h":11}
},
{
	"filename": "play_btn.png",
	"frame": {"x":589,"y":0,"w":174,"h":57},
	"rotated": false,
	"trimmed": false,
	"spriteSourceSize": {"x":0,"y":0,"w":174,"h":57},
	"sourceSize": {"w":174,"h":57}
},
{
	"filename": "welcome_popup.png",
	"frame": {"x":0,"y":57,"w":768,"h":668},
	"rotated": false,
	"trimmed": false,
	"spriteSourceSize": {"x":0,"y":0,"w":768,"h":668},
	"sourceSize": {"w":768,"h":668}
}],
"meta": {
	"app": "https://www.codeandweb.com/texturepacker",
	"version": "1.0",
	"image": "welcome_popup.png",
	"format": "RGBA8888",
	"size": {"w":768,"h":725},
	"scale": "1",
	"smartupdate": "$TexturePacker:SmartUpdate:2c79c0dfb335524b204e3face0bb3433:609519969be51696db2d5e5569a57a24:baaffec4abfc7f654c795fc850c2c80b$"
}
}
